<svg xmlns="http://www.w3.org/2000/svg" width="113.061" height="40.312" viewBox="0 0 113.061 40.312">
  <g id="Group_118" data-name="Group 118" transform="translate(18215.753 -10131)">
    <path id="Path_30" data-name="Path 30" d="M601.453,0a36.628,36.628,0,0,1-.138,4.348c-.587,4.038-1.277,8.075-1.967,12.113-.1.518-.552,1.415-.759,1.415-1.035-.138-2.381.794-3.175-.69-3.348,2.243-6.937.621-7.385-4.59a10.278,10.278,0,0,1,1.795-6.661c2.036-3.037,4.417-3.486,7.489-1.242.276-1.449.518-2.83.794-4.279,1-.138,2-.276,3-.38A1.175,1.175,0,0,1,601.453,0Zm-4.935,10.215c-.069-.035-.1-.035-.172-.069v-.69c0-1.07-.173-2.347-1.415-2.347a3.294,3.294,0,0,0-2.209,1.657,7.89,7.89,0,0,0-.552,3.486c.034.621.69,1.726,1.139,1.76a3.028,3.028,0,0,0,2.243-1A7.893,7.893,0,0,0,596.518,10.215Z" transform="translate(-18709.908 10131)" fill="#324755"/>
    <path id="Path_31" data-name="Path 31" d="M512.982,0c2.312,1.173,1.967.345,1.139,4.521a15.54,15.54,0,0,0-3.934-.483c-2.485.38-4.245,3.865-3.727,6.833.621,3.382,1.933,4,6.281,2.692-.173,1.242-.276,2.45-.552,3.589-.069.311-.552.656-.932.794-3.9,1.277-7.558-.587-8.421-4.59-.9-4.245-.449-8.317,2.933-11.527A19.559,19.559,0,0,1,508.392.035C509.98,0,511.5,0,512.982,0Z" transform="translate(-18653.877 10131)" fill="#324755"/>
    <path id="Path_34" data-name="Path 34" d="M323.249,7.395a82.969,82.969,0,0,0-1.415,8.7c-.138,1.933-.828,2.519-2.623,2.278-.345-.035-.69,0-1.311,0,.276-2.105.518-4.107.828-6.108.518-3.382,1.139-6.73,1.622-10.112.138-1.07.483-1.553,1.587-1.518,5.142.138,4.072-.863,4.279,4.038a40.913,40.913,0,0,0,.276,5c.828-2.554,1.726-5.108,2.45-7.7A1.549,1.549,0,0,1,330.738.6c1.484.035,2.933,0,4.555,0-.387,2.43-.767,4.809-1.2,7.476-.516,3.22-1.076,6.694-1.635,10.194H328.6c.483-3.382.966-6.661,1.449-9.939-.1-.035-.173-.035-.276-.069-.966,2.9-2,5.763-2.9,8.7-.414,1.415-1.311,1.484-2.45,1.415-1.346-.1-.9-1.139-.9-1.829-.034-3.037-.034-6.074-.034-9.076A.372.372,0,0,0,323.249,7.395Z" transform="translate(-18533.027 10130.611)" fill="#324755"/>
    <path id="Path_38" data-name="Path 38" d="M569.889,67.354c.9-4.935.9-4.935,4.348-4.21-.242,1.587-.449,3.209-.69,4.831-.552,3.658-1.1,7.351-1.656,11.009a2.3,2.3,0,0,1-3.417,1.726,2.12,2.12,0,0,0-1.38-.1,3.943,3.943,0,0,1-5-1.829c-1.864-3.175-.69-9.421,2.174-11.7C566.128,65.49,567.508,65.559,569.889,67.354Zm-4.866,6.453c.069.035.1.035.173.069a2.6,2.6,0,0,0,.034,1.035c.311.725.759,1.38,1.139,2.071.69-.483,1.76-.863,2-1.518a12.781,12.781,0,0,0,.552-4.141c0-.518-.759-1.38-1.208-1.38a2.308,2.308,0,0,0-1.726,1.035A10.958,10.958,0,0,0,565.023,73.807Z" transform="translate(-18692.355 10089.874)" fill="#324755"/>
    <path id="Path_39" data-name="Path 39" d="M414.064,73.1c-.345,2.347-.759,4.59-1,6.868-.138,1.139-.932,2.83.828,3.209,1.518.311,2-1.208,2.243-2.485.449-2.519.863-5.039,1.311-7.661h3.762c-.276,1.933-.518,3.8-.759,5.625-.345,2.416-.69,4.866-1,7.282-.1.759-.1,1.622-1.208,1.449-.966-.173-2.485.828-2.623-1.277-.276.207-.483.38-.69.518-2.519,2.071-5.453,1.07-5.729-2.174a56.586,56.586,0,0,1,.414-8.006,1.978,1.978,0,0,1,.138-.483C410.3,72.655,410.3,72.655,414.064,73.1Z" transform="translate(-18592.783 10083.262)" fill="#324755"/>
    <path id="Path_40" data-name="Path 40" d="M371.187,23.107a11.652,11.652,0,0,1-1.587.828,3.819,3.819,0,0,1-5.315-3.969,5.373,5.373,0,0,1,5.591-5.28h2.036c.138-2-.518-2.174-5.384-1.415-.656-2.243-.069-3.279,2.071-3.762a9.473,9.473,0,0,1,2.209-.311c3.658-.035,5.315,1.449,5.039,5.073-.242,3.209-.863,6.419-1.346,9.767C373.326,23.659,372.05,24.694,371.187,23.107Zm.656-5.522a6.363,6.363,0,0,0-2.278.242,3.055,3.055,0,0,0-1.311,1.553c-.138.345.414,1.38.621,1.346a3.29,3.29,0,0,0,1.9-.725A9.532,9.532,0,0,0,371.842,17.585Z" transform="translate(-18563.398 10124.977)" fill="#324755"/>
    <path id="Path_41" data-name="Path 41" d="M540.55,22.927c-3.106,1.933-5.97,1.173-6.66-1.691a5.473,5.473,0,0,1,5-6.764,11.67,11.67,0,0,0,1.553-.035,5.829,5.829,0,0,0,1.242-.587c-.414-.38-.794-1.035-1.208-1.07a25.164,25.164,0,0,0-3.589.138c-.38.035-.759.1-1.242.138a3.332,3.332,0,0,1,.1-.759c.345-1.139-.173-2.726,1.795-3,2.45-.345,4.935-1,6.9,1.139,1.553,1.691.828,3.831.656,5.763-.173,2.105-.552,4.176-.932,6.246-.069.449-.518,1.242-.759,1.242C542.448,23.617,541.206,24.411,540.55,22.927Zm.552-5.28c-2.209-.345-3.417.1-3.417,1.311,0,.552.552,1.622.9,1.622C540.447,20.718,540.723,19.2,541.1,17.646Z" transform="translate(-18674.371 10125.156)" fill="#324755"/>
    <path id="Path_42" data-name="Path 42" d="M536.708,79.056a8.823,8.823,0,0,1-2.105,6.557c-1.656,1.9-3.934,1.829-6.039,1.415-1.864-.345-2.864-1.933-3.278-3.8-.759-3.348-.483-6.522,1.864-9.18,1.656-1.864,3.8-2.657,6.177-1.622a5.443,5.443,0,0,1,3.348,5.315C536.708,78.193,536.708,78.676,536.708,79.056Zm-3.624-.138a2.2,2.2,0,0,0-.242-.069c0-.345.1-.759-.035-1-.345-.656-.725-1.587-1.277-1.726a2.03,2.03,0,0,0-1.795,1,21.476,21.476,0,0,0-.621,4.935,1.83,1.83,0,0,0,1.277,1.277,1.979,1.979,0,0,0,1.622-.863A20.169,20.169,0,0,0,533.084,78.918Z" transform="translate(-18668.596 10083.866)" fill="#324755"/>
    <path id="Path_43" data-name="Path 43" d="M456.182,19.8a1.1,1.1,0,0,1,.1.311c-.173,3.934-.483,3.658-3.831,3.934-4.176.311-6.522-2.14-6.557-6.281-.035-3.071.621-5.832,3.209-7.73a5.171,5.171,0,0,1,5.936-.38,6.206,6.206,0,0,1,2.243,5.625,9.317,9.317,0,0,0-.276,1.346c.035,1.139-.587,1.311-1.518,1.311-1.829-.035-3.658,0-5.453,0C449.211,19.972,451.178,21.214,456.182,19.8Zm-2.8-5.108c.311-1.139.1-2.105-1.1-2.209-1.311-.1-1.967.863-2.209,2.209Z" transform="translate(-18616.852 10125.178)" fill="#324755"/>
    <path id="Path_44" data-name="Path 44" d="M316.608,75.647a14.28,14.28,0,0,0,3.486.725,3.206,3.206,0,0,0,2.243-1.311c.518-1.035-.207-1.933-1.277-2.416-3.555-1.657-4.176-4.176-2.9-7.868,1.035-2.968,6.453-4.417,8.869-2.554a1.311,1.311,0,0,1,.345,1.035c-.173.932-.449,1.864-.725,2.864a10.743,10.743,0,0,0-3-.587c-.69.035-1.38.69-2.071,1.1.38.69.621,1.587,1.208,1.967,3.589,2.312,4.555,5.073,2.933,8.662-1.311,2.864-6.937,4.279-9.318,2.278a1.117,1.117,0,0,1-.311-.863C316.228,77.648,316.435,76.647,316.608,75.647Z" transform="translate(-18531.838 10090.796)" fill="#324755"/>
    <path id="Path_45" data-name="Path 45" d="M358.211,80.934h-6.488c.173,2.692.828,2.9,6.246,1.967-.138,1.035-.173,2.036-.38,3a1.422,1.422,0,0,1-.725.828c-4.383,2-8.8-.759-8.766-5.556a15.521,15.521,0,0,1,.759-5.039c1.07-3.106,3.865-4.762,6.281-4.107,2.726.759,4.141,3.486,3.555,6.937A20.191,20.191,0,0,1,358.211,80.934Zm-2.9-3.244c-.035-1.1-.138-1.967-1.415-2-1.311-.035-1.518.863-1.691,2Z" transform="translate(-18552.805 10083.921)" fill="#324755"/>
    <path id="Path_46" data-name="Path 46" d="M607.419,81.01h-6.557c-.1,2.761,1.484,3.244,5.832,1.864.725,2.968-.207,4.245-3.071,4.279-4.59.035-6.7-2.071-6.626-6.7.035-2.761.725-5.315,2.968-7.213a4.225,4.225,0,0,1,4.762-.9,4.728,4.728,0,0,1,2.933,4.279A39.878,39.878,0,0,1,607.419,81.01Zm-6.488-3.727.311.414h2.933c.1-.173.242-.311.345-.483-.518-.483-1.139-1.449-1.587-1.346C602.208,76.006,601.587,76.765,600.931,77.283Z" transform="translate(-18715.805 10083.879)" fill="#324755"/>
    <path id="Path_47" data-name="Path 47" d="M466.215,80.994c.138,2.036,1.208,2.692,2.623,2.657a25.172,25.172,0,0,0,3.589-.621c.069.1.138.138.138.173-.276,3.244-.552,3.727-2.416,3.969-3.624.483-6.212-.621-6.971-3.244a11.059,11.059,0,0,1,1.07-9.249,4.923,4.923,0,0,1,5.867-2.381,5.158,5.158,0,0,1,3.244,5.763c-.38,2.9-.38,2.9-3.348,2.9C468.8,80.994,467.6,80.994,466.215,80.994Zm3.313-3.14c.173-.138.345-.311.518-.449-.449-.518-.828-1.415-1.38-1.518-1.38-.276-1.76.759-1.967,1.967Z" transform="translate(-18627.816 10083.826)" fill="#324755"/>
    <path id="Path_48" data-name="Path 48" d="M506.908,67.239c-.276-.035-.449-.035-.587-.069-3-.9-4.21-.656-5.384,1-1.38,2-1.725,6.074-.38,7.661a4.126,4.126,0,0,0,2.554.966,8.736,8.736,0,0,0,2.554-.621c-.173,1.38-.276,2.588-.518,3.8-.035.242-.587.483-.932.587a5.744,5.744,0,0,1-7.42-3.071c-2.036-4.383-.449-11.25,3.14-13.908,2.243-1.657,4.624-1.311,7.006-.449.276.1.483.725.449,1.1A30.2,30.2,0,0,1,506.908,67.239Z" transform="translate(-18649.598 10090.127)" fill="#324755"/>
    <path id="Path_49" data-name="Path 49" d="M407.039,9.561c-.138.966-.311,1.967-.483,3.14a30.967,30.967,0,0,0-3.106.035,1.7,1.7,0,0,0-1.139.725c-.1.173.311.759.621,1.035a5.035,5.035,0,0,0,1.035.587,4.5,4.5,0,0,1,2.381,5.177c-.311,1.967-1.449,3.175-3.831,3.486a24.056,24.056,0,0,1-4.728-.069,1.315,1.315,0,0,1-.69-.932,27.777,27.777,0,0,1,.38-2.761,18.78,18.78,0,0,0,3.106.518,5.8,5.8,0,0,0,1.967-.759c-.414-.552-.69-1.277-1.208-1.587-2.554-1.518-3.244-2.726-2.933-5.246a4.142,4.142,0,0,1,2.968-3.624A8.174,8.174,0,0,1,407.039,9.561Z" transform="translate(-18584.895 10125.166)" fill="#324755"/>
    <path id="Path_51" data-name="Path 51" d="M389.313,77.362c-1.691-.794-3.106-1.208-4.314.276a5.761,5.761,0,0,0-.414,5.073c1.035,1.587,2.416,1.07,4.314.449-.345,1.553-.276,3.52-1,3.9a6.362,6.362,0,0,1-4.521.242c-2.14-.69-2.864-2.8-3.14-4.935-.518-4.038,1.311-8.766,5.349-9.49a10.5,10.5,0,0,1,3.934.518,1.348,1.348,0,0,1,.552,1.035C389.9,75.36,389.59,76.258,389.313,77.362Z" transform="translate(-18573.795 10083.317)" fill="#324755"/>
    <path id="Path_54" data-name="Path 54" d="M431.613,4c-.069.552-.173,1.1-.242,1.726.587.1,1.139.207,2.071.414-1.311,1.139.587,3.9-2.657,3.589a43.9,43.9,0,0,1-.828,4.97c-.449,1.657-.1,2.45,1.691,2.278.207,3.244-1.587,4.624-4.245,3.451a2.61,2.61,0,0,1-1.553-2.933c.345-3.106.828-6.177,1.242-9.283.034-.345.1-.656.138-1C427.644,3.616,427.954,3.374,431.613,4Z" transform="translate(-18603.705 10128.558)" fill="#324755"/>
    <path id="Path_55" data-name="Path 55" d="M572.936,10.17c.863-.38,1.656-.725,2.416-1.07l.38.38c-.966,1.484-.276,3.693-2.554,4.693-.552.242-.828,1.449-1,2.278a47.934,47.934,0,0,0-1.035,5.9c-.1,1.346-.621,1.691-1.795,1.553-.725-.069-1.449,0-2.347,0,.69-4.693,1.346-9.214,2.071-13.666a1.176,1.176,0,0,1,.9-.759C571,9.618,572.315,8.72,572.936,10.17Z" transform="translate(-18696.162 10125.04)" fill="#324755"/>
    <path id="Path_56" data-name="Path 56" d="M480.843,8.987h3.279c.069.38.173.759.207.932.932-.449,1.829-.9,3.106-1.518-.483,1.795-.828,3-1.173,4.245-.034.1-.069.276-.138.311-3.658,1.795-2.381,5.522-3.279,8.386a17.623,17.623,0,0,0-.449,2.036h-3.8C479.394,18.546,480.118,13.784,480.843,8.987Z" transform="translate(-18638.27 10125.499)" fill="#324755"/>
    <path id="Path_57" data-name="Path 57" d="M443.905,71.914c1.311.38,2.726-.518,3.52.9.656-.311,1.518-.725,2.761-1.311-.483,1.829-.794,3.071-1.139,4.314-.034.1-.069.276-.138.311-2.933,1.173-2.036,4.107-2.83,6.281a5.017,5.017,0,0,0-.1,1.035c-.276,3.279-.621,3.52-4.176,2.864C442.525,81.577,443.215,76.849,443.905,71.914Z" transform="translate(-18614.168 10084.175)" fill="#324755"/>
    <path id="Path_64" data-name="Path 64" d="M629.6,104.183c1.311.242,2.83-.794,3.762.828.242-.276.518-.587,1.1-1.311v3.486h-2.554c-.034-.725-.1-1.38-.138-2.071a1.009,1.009,0,0,0-.311-.069c-.173.725-.311,1.449-.483,2.174a1.682,1.682,0,0,0-.38.138C630.29,106.357,629.98,105.357,629.6,104.183Z" transform="translate(-18737.158 10063.088)" fill="#324755"/>
    <path id="Path_65" data-name="Path 65" d="M630.028,40.972a2.7,2.7,0,0,1-2.278,2.588,3.047,3.047,0,0,1-2.45-2.485,2.676,2.676,0,0,1,2.243-2.381A2.388,2.388,0,0,1,630.028,40.972Zm-.656.1c-.759-.552-1.242-1.139-1.553-1.07a1.629,1.629,0,0,0-1.07,1.1c-.034.311.621,1.07,1,1.07C628.164,42.179,628.613,41.627,629.372,41.075Z" transform="translate(-18734.342 10105.662)" fill="#324755"/>
    <path id="Path_68" data-name="Path 68" d="M632.055,43.559c-.759.552-1.208,1.1-1.656,1.1-.345,0-1.035-.725-1-1.07a1.633,1.633,0,0,1,1.07-1.1C630.813,42.42,631.3,43.007,632.055,43.559Z" transform="translate(-18737.025 10103.178)" fill="#324755"/>
  </g>
</svg>
